<svg xmlns="http://www.w3.org/2000/svg" viewBox="579 3940 42 36">
  <defs>
    <style>
      .cls-1 {
        fill: #d72638;
      }
    </style>
  </defs>
  <g id="IMAGE2" transform="translate(547 3876)">
    <path id="Path_2" data-name="Path 2" class="cls-1" d="M324.5,137a4.5,4.5,0,1,0-4.5-4.5A4.5,4.5,0,0,0,324.5,137Z" transform="translate(-261 -58)"/>
    <path id="Path_3" data-name="Path 3" class="cls-1" d="M71.375,64H34.625A2.633,2.633,0,0,0,32,66.653V97.347A2.633,2.633,0,0,0,34.625,100h36.75A2.633,2.633,0,0,0,74,97.347V66.653A2.633,2.633,0,0,0,71.375,64ZM61.709,82.534a1.61,1.61,0,0,0-1.2-.581,1.852,1.852,0,0,0-1.2.534l-1.753,1.481a1.759,1.759,0,0,1-1.078.441,1.551,1.551,0,0,1-1.031-.384c-.094-.084-.263-.244-.4-.384L50,78.184a2.067,2.067,0,0,0-1.566-.7,2.129,2.129,0,0,0-1.575.731L35,92.519V68.1A1.236,1.236,0,0,1,36.228,67H69.763a1.19,1.19,0,0,1,1.209,1.125L71,92.537Z"/>
  </g>
</svg>
